module modernc.org/benchmark-ordered-map

go 1.18

require (
	github.com/3xian/elephantlist v0.0.0-20140607022226-3d608579b1a8
	github.com/ajwerner/btree v0.0.0-20211201061316-91c8b66ad617
	github.com/biogo/store v0.0.0-20201120204734-aad293a2328f
	github.com/glenn-brown/skiplist v0.0.0-20121122060428-b6428f513193
	github.com/google/btree v1.0.1
	github.com/kellydunn/go-art v0.0.1
	github.com/petar/GoLLRB v0.0.0-20210522233825-ae3b015fd3e9
	github.com/ryszard/goskiplist v0.0.0-20150312221310-2dfbae5fcf46
	modernc.org/b v1.0.2
)

require github.com/glenn-brown/ordinal v0.0.0-20121112042833-18b2aec8a941 // indirect
